{"count":66830,"next":"https://api.kexp.org/v2/shows/?limit=1&offset=1","previous":null,"results":[{"id":66959,"uri":"https://api.kexp.org/v2/shows/66959/","program":16,"program_uri":"https://api.kexp.org/v2/programs/16/","hosts":[26],"host_uris":["https://api.kexp.org/v2/hosts/26/"],"program_name":"The Morning Show","program_tags":"Rock,Eclectic,Variety Mix","host_names":["John Richards"],"tagline":"You Are Not Alone","image_uri":"https://www.kexp.org/media/filer_public/f2/cc/f2cc10a5-2df6-4b92-b7e4-78773fb51dbb/johnrichards_800x800.jpg","program_image_uri":"https://www.kexp.org/media/filer_public/52/4f/524fcf17-a90e-4600-9dcb-8ade7f4704c6/themorningshow-800x800.jpg","start_time":"2026-06-11T07:02:23-07:00","location":1,"location_name":"Default"}]}